<svg width="19" height="19" viewBox="0 0 19 19" fill="none" xmlns="http://www.w3.org/2000/svg">
<path fill-rule="evenodd" clip-rule="evenodd" d="M0.294922 5.79825L8.93314 0.460591C9.2909 0.239536 9.74205 0.239536 10.0998 0.460591L18.738 5.79825H0.294922Z" fill="#18DEBD"/>
<path fill-rule="evenodd" clip-rule="evenodd" d="M10.088 0.460591C9.72976 0.239536 9.27798 0.239536 8.91977 0.460591L8.7793 0.547237L17.2887 5.79825H18.7379L10.088 0.460591Z" fill="#15C5A8"/>
<path fill-rule="evenodd" clip-rule="evenodd" d="M0.294922 5.79834H18.738V6.63368C18.738 7.09502 18.3642 7.46903 17.9031 7.46903H1.12987C0.668762 7.46903 0.294922 7.09502 0.294922 6.63368V5.79834Z" fill="#D6DCE5"/>
<path fill-rule="evenodd" clip-rule="evenodd" d="M17.6148 5.79834V6.63368C17.6148 7.09502 17.2377 7.46903 16.7725 7.46903H17.8956C18.3608 7.46903 18.738 7.09502 18.738 6.63368V5.79834H17.6148Z" fill="#DCEAFC"/>
<path fill-rule="evenodd" clip-rule="evenodd" d="M14.2827 9.04138H16.5103V16.0517H14.2827V9.04138Z" fill="#ECF5FF"/>
<path fill-rule="evenodd" clip-rule="evenodd" d="M15.3965 9.04138H16.5103V16.0517H15.3965V9.04138Z" fill="#DCEAFC"/>
<path fill-rule="evenodd" clip-rule="evenodd" d="M16.8419 17.6242H13.9512C13.5192 17.6242 13.1689 17.2722 13.1689 16.838C13.1689 16.4038 13.5192 16.0518 13.9512 16.0518H16.8419C17.2739 16.0518 17.6241 16.4038 17.6241 16.838C17.6241 17.2722 17.2739 17.6242 16.8419 17.6242Z" fill="#8497B0"/>
<path fill-rule="evenodd" clip-rule="evenodd" d="M16.8393 16.0518H15.7241C16.1576 16.0518 16.509 16.4038 16.509 16.838C16.509 17.2722 16.1576 17.6242 15.7241 17.6242H16.8393C17.2728 17.6242 17.6241 17.2722 17.6241 16.838C17.6241 16.4038 17.2728 16.0518 16.8393 16.0518Z" fill="#455E7E"/>
<path fill-rule="evenodd" clip-rule="evenodd" d="M16.8419 7.46899H13.9512C13.5192 7.46899 13.1689 7.82099 13.1689 8.2552C13.1689 8.68942 13.5192 9.04141 13.9512 9.04141H16.8419C17.2739 9.04141 17.6241 8.68942 17.6241 8.2552C17.6241 7.82099 17.2739 7.46899 16.8419 7.46899Z" fill="#8497B0"/>
<path fill-rule="evenodd" clip-rule="evenodd" d="M16.8393 7.46899H15.7241C16.1576 7.46899 16.509 7.82099 16.509 8.2552C16.509 8.68942 16.1576 9.04141 15.7241 9.04141H16.8393C17.2728 9.04141 17.6241 8.68942 17.6241 8.2552C17.6241 7.82099 17.2728 7.46899 16.8393 7.46899Z" fill="#455E7E"/>
<path fill-rule="evenodd" clip-rule="evenodd" d="M8.38623 9.04138H10.6466V16.0517H8.38623V9.04138Z" fill="#ECF5FF"/>
<path fill-rule="evenodd" clip-rule="evenodd" d="M9.5 9.04138H10.6138V16.0517H9.5V9.04138Z" fill="#DCEAFC"/>
<path fill-rule="evenodd" clip-rule="evenodd" d="M10.9454 17.6242H8.0547C7.62268 17.6242 7.27246 17.2722 7.27246 16.838C7.27246 16.4038 7.62268 16.0518 8.0547 16.0518H10.9454C11.3774 16.0518 11.7276 16.4038 11.7276 16.838C11.7276 17.2722 11.3774 17.6242 10.9454 17.6242Z" fill="#8497B0"/>
<path fill-rule="evenodd" clip-rule="evenodd" d="M10.9563 16.0518H9.86035C10.2863 16.0518 10.6317 16.4038 10.6317 16.838C10.6317 17.2722 10.2863 17.6242 9.86035 17.6242H10.9563C11.3823 17.6242 11.7276 17.2722 11.7276 16.838C11.7276 16.4038 11.3822 16.0518 10.9563 16.0518Z" fill="#455E7E"/>
<path fill-rule="evenodd" clip-rule="evenodd" d="M10.9454 7.46899H8.0547C7.62268 7.46899 7.27246 7.82099 7.27246 8.2552C7.27246 8.68942 7.62268 9.04141 8.0547 9.04141H10.9454C11.3774 9.04141 11.7276 8.68942 11.7276 8.2552C11.7276 7.82099 11.3774 7.46899 10.9454 7.46899Z" fill="#8497B0"/>
<path fill-rule="evenodd" clip-rule="evenodd" d="M10.9563 7.46899H9.86035C10.2863 7.46899 10.6317 7.82099 10.6317 8.2552C10.6317 8.68942 10.2863 9.04141 9.86035 9.04141H10.9563C11.3823 9.04141 11.7276 8.68942 11.7276 8.2552C11.7276 7.82099 11.3822 7.46899 10.9563 7.46899Z" fill="#455E7E"/>
<path fill-rule="evenodd" clip-rule="evenodd" d="M2.52246 9.04138H4.75005V16.0517H2.52246V9.04138Z" fill="#ECF5FF"/>
<path fill-rule="evenodd" clip-rule="evenodd" d="M3.63623 9.04138H4.75002V16.0517H3.63623V9.04138Z" fill="#DCEAFC"/>
<path fill-rule="evenodd" clip-rule="evenodd" d="M5.08162 17.6242H2.19094C1.75891 17.6242 1.40869 17.2722 1.40869 16.838C1.40869 16.4038 1.75891 16.0518 2.19094 16.0518H5.08162C5.51364 16.0518 5.86386 16.4038 5.86386 16.838C5.86386 17.2722 5.51364 17.6242 5.08162 17.6242Z" fill="#8497B0"/>
<path fill-rule="evenodd" clip-rule="evenodd" d="M5.07904 16.0518H3.96387C4.39733 16.0518 4.7487 16.4038 4.7487 16.838C4.7487 17.2722 4.39733 17.6242 3.96387 17.6242H5.07904C5.5125 17.6242 5.86387 17.2722 5.86387 16.838C5.86387 16.4038 5.5125 16.0518 5.07904 16.0518Z" fill="#455E7E"/>
<path fill-rule="evenodd" clip-rule="evenodd" d="M5.08162 7.46899H2.19094C1.75891 7.46899 1.40869 7.82099 1.40869 8.2552C1.40869 8.68942 1.75891 9.04141 2.19094 9.04141H5.08162C5.51364 9.04141 5.86386 8.68942 5.86386 8.2552C5.86386 7.82099 5.51364 7.46899 5.08162 7.46899Z" fill="#8497B0"/>
<path fill-rule="evenodd" clip-rule="evenodd" d="M5.07904 7.46899H3.96387C4.39733 7.46899 4.7487 7.82099 4.7487 8.2552C4.7487 8.68942 4.39733 9.04141 3.96387 9.04141H5.07904C5.5125 9.04141 5.86387 8.68942 5.86387 8.2552C5.86387 7.82099 5.5125 7.46899 5.07904 7.46899Z" fill="#455E7E"/>
<path fill-rule="evenodd" clip-rule="evenodd" d="M0.666012 17.6241H18.3669C18.5719 17.6241 18.738 17.7904 18.738 17.9954V18.3667C18.738 18.5717 18.5719 18.7379 18.3669 18.7379H0.666012C0.461041 18.7379 0.294922 18.5717 0.294922 18.3667V17.9954C0.294922 17.7903 0.461106 17.6241 0.666012 17.6241Z" fill="#18DEBD"/>
<path fill-rule="evenodd" clip-rule="evenodd" d="M18.3693 17.6241H17.2637C17.4672 17.6241 17.6322 17.7904 17.6322 17.9954V18.3667C17.6322 18.5717 17.4672 18.7379 17.2637 18.7379H18.3693C18.5728 18.7379 18.7378 18.5717 18.7378 18.3667V17.9954C18.7378 17.7903 18.5728 17.6241 18.3693 17.6241Z" fill="#15C5A8"/>
<path fill-rule="evenodd" clip-rule="evenodd" d="M19 6.60683V5.77014C18.9988 5.68487 18.9583 5.5881 18.8677 5.53327L10.2294 0.208025C9.7795 -0.0693418 9.2205 -0.0693418 8.7706 0.208025L0.132282 5.53327C0.0603437 5.57903 -0.000818206 5.66423 3.35178e-05 5.77014V6.6068C-0.00510958 7.26128 0.582384 7.79046 1.24185 7.72177C1.15992 7.87253 1.1133 8.04516 1.1133 8.22855C1.1133 8.83147 1.6224 9.32118 2.2266 9.29199V12.7822C2.2266 12.9359 2.35122 13.0605 2.50492 13.0605C2.65863 13.0605 2.78324 12.9359 2.78324 12.7822V9.29199H4.46244V15.7576H2.78324V14.0809C2.78324 13.9272 2.65863 13.8026 2.50492 13.8026C2.35122 13.8026 2.2266 13.9272 2.2266 14.0809V15.7576C1.62496 15.7386 1.1133 16.2096 1.1133 16.8211C1.1133 17.0044 1.15992 17.1771 1.24185 17.3278H0.649441C0.29139 17.3278 3.35178e-05 17.6195 3.35178e-05 17.978V18.3498C3.35178e-05 18.7084 0.29139 19 0.649441 19H18.3506C18.7086 19 19 18.7084 19 18.3498V17.978C19 17.6195 18.7086 17.3278 18.3506 17.3278H17.7582C17.8401 17.1771 17.8867 17.0044 17.8867 16.8211C17.8867 16.2132 17.3774 15.7318 16.7734 15.7576V9.29202C17.3714 9.31086 17.8867 8.84044 17.8867 8.22861C17.8867 8.04523 17.8401 7.87252 17.7582 7.7218C18.4026 7.76115 19.0048 7.28923 19 6.60683ZM2.17514 8.73539C1.89659 8.73539 1.66994 8.50804 1.66994 8.22861C1.66994 7.94915 1.89659 7.7218 2.17514 7.7218H5.07058C5.34916 7.7218 5.57578 7.94915 5.57578 8.22861C5.57578 8.50804 5.34916 8.73539 5.07058 8.73539H2.17514ZM6.00387 7.7218H7.11904C7.03711 7.87256 6.99049 8.04523 6.99049 8.22861C6.99049 8.8315 7.49959 9.32121 8.10376 9.29202V15.7577C7.50231 15.7388 6.99049 16.2095 6.99049 16.8211C6.99049 17.0045 7.03711 17.1771 7.11904 17.3279H6.00387C6.0858 17.1771 6.13241 17.0045 6.13241 16.8211C6.13241 16.2132 5.62308 15.7319 5.01915 15.7577V9.29202C5.61735 9.31086 6.13241 8.84044 6.13241 8.22861C6.13241 8.04523 6.0858 7.87252 6.00387 7.7218ZM11.881 7.7218H12.9962C12.9142 7.87256 12.8676 8.04523 12.8676 8.22861C12.8676 8.8315 13.3767 9.32121 13.9809 9.29202V15.7577C13.3796 15.739 12.8676 16.2094 12.8676 16.8211C12.8676 17.0045 12.9142 17.1771 12.9962 17.3279H11.881C11.963 17.1771 12.0095 17.0045 12.0095 16.8211C12.0095 16.2132 11.5002 15.7319 10.8963 15.7577V9.29202C11.4943 9.31089 12.0095 8.84044 12.0095 8.22861C12.0095 8.04523 11.963 7.87252 11.881 7.7218ZM10.9477 16.3143C11.2263 16.3143 11.4529 16.5416 11.4529 16.8211C11.4529 17.1005 11.2263 17.3278 10.9477 17.3278H8.05233C7.77378 17.3278 7.54716 17.1005 7.54716 16.8211C7.54716 16.5416 7.77378 16.3143 8.05233 16.3143H10.9477ZM8.6604 15.7576V9.29202H10.3396V15.7577H8.6604V15.7576ZM10.9477 8.73539H8.05233C7.77378 8.73539 7.54716 8.50804 7.54716 8.22861C7.54716 7.94915 7.77378 7.7218 8.05233 7.7218H10.9477C11.2263 7.7218 11.4529 7.94915 11.4529 8.22861C11.4529 8.50804 11.2263 8.73539 10.9477 8.73539ZM2.17514 16.3143H5.07058C5.34916 16.3143 5.57578 16.5416 5.57578 16.8211C5.57578 17.1005 5.34916 17.3278 5.07058 17.3278H2.17514C1.89659 17.3278 1.66994 17.1005 1.66994 16.8211C1.66994 16.5416 1.89659 16.3143 2.17514 16.3143ZM18.3506 17.8845C18.4017 17.8845 18.4433 17.9264 18.4433 17.978V18.3498C18.4433 18.4014 18.4017 18.4434 18.3506 18.4434H0.649441C0.598305 18.4434 0.556668 18.4014 0.556668 18.3498V17.978C0.556668 17.9264 0.598305 17.8845 0.649441 17.8845H18.3506ZM16.8249 16.3143C17.1035 16.3143 17.3301 16.5416 17.3301 16.8211C17.3301 17.1005 17.1035 17.3278 16.8249 17.3278H13.9295C13.6509 17.3278 13.4243 17.1005 13.4243 16.8211C13.4243 16.5416 13.6509 16.3143 13.9295 16.3143H16.8249ZM14.5376 15.7576V9.29202H16.2168V15.7577H14.5376V15.7576ZM16.8249 8.73539H13.9295C13.6509 8.73539 13.4243 8.50804 13.4243 8.22861C13.4243 7.94915 13.6509 7.7218 13.9295 7.7218H16.8249C17.1035 7.7218 17.3301 7.94915 17.3301 8.22861C17.3301 8.50804 17.1034 8.73539 16.8249 8.73539ZM1.1133 7.1652C0.806387 7.1652 0.556668 6.91473 0.556668 6.60683V6.04846H13.4154C13.5691 6.04846 13.6937 5.92385 13.6937 5.77014C13.6937 5.61644 13.5691 5.49186 13.4154 5.49186H1.26016L9.06274 0.681846C9.33251 0.515596 9.66759 0.515596 9.93729 0.681846L17.7398 5.49186H14.7142C14.5605 5.49186 14.4359 5.61644 14.4359 5.77014C14.4359 5.92385 14.5605 6.04846 14.7142 6.04846H18.4433V6.6068C18.4433 6.91466 18.1936 7.16514 17.8867 7.16514H1.1133V7.1652ZM9.24186 2.31883H10.1453C10.299 2.31883 10.4237 2.19421 10.4237 2.04054C10.4237 1.88684 10.299 1.76223 10.1453 1.76223H9.77832V1.55437C9.77832 1.40067 9.6537 1.27605 9.5 1.27605C9.3463 1.27605 9.22168 1.40067 9.22168 1.55437V1.76331C8.86409 1.7749 8.57637 2.09017 8.57637 2.47699V2.76795C8.57637 2.95264 8.64153 3.12787 8.75985 3.26123C8.88473 3.40199 9.06041 3.48274 9.24186 3.48267H9.7581C9.8096 3.48267 9.86696 3.54763 9.86696 3.64087V3.93186C9.86696 4.02509 9.8096 4.09005 9.7581 4.09005H8.85462C8.70092 4.09005 8.57631 4.21467 8.57631 4.36837C8.57631 4.52207 8.70092 4.64665 8.85462 4.64665H9.22165V4.85454C9.22165 5.00824 9.34626 5.13282 9.49997 5.13282C9.65367 5.13282 9.77828 5.00824 9.77828 4.85454V4.64557C10.1359 4.63398 10.4236 4.31871 10.4236 3.93189V3.64093C10.4236 3.24678 10.1251 2.92614 9.75807 2.92614H9.24183C9.1656 2.92394 9.13366 2.83363 9.13294 2.76795V2.47699C9.13304 2.38375 9.1904 2.31883 9.24186 2.31883Z" fill="#203864"/>
</svg>
