<svg width="100" height="100" viewBox="0 0 100 100" fill="none" xmlns="http://www.w3.org/2000/svg">
<path d="M50 0C22.3652 0 0 22.3633 0 50C0 77.6348 22.3633 100 50 100C77.6348 100 100 77.6367 100 50C100 22.3652 77.6367 0 50 0ZM38.1027 71.0918C38.1027 71.0918 20.8328 53.8148 19.5914 52.5758C16.8299 49.8143 16.8299 45.3205 19.5914 42.5613C22.36 39.7928 26.8373 39.7928 29.6059 42.5613L40.7863 53.7418C42.1766 55.132 44.4328 55.1225 45.8113 53.7252L70.3602 28.8225C73.1193 26.0232 77.6273 26.0043 80.41 28.7871C83.1502 31.5273 83.1668 36.0023 80.4453 38.7639C53.7865 65.8119 48.7238 71.0895 48.7238 71.0895C45.7971 74.016 41.0318 74.0186 38.1027 71.0918Z" fill="#15C5A8"/>
</svg>
