<svg width="55" height="55" viewBox="0 0 55 55" fill="none" xmlns="http://www.w3.org/2000/svg">
<g clip-path="url(#clip0)">
<path d="M53.9044 28.264L47.5244 20.9807H41.1162V36.5637H53.9044V28.264Z" fill="#F2F2F2"/>
<path d="M41.1164 15.3867H18.4886V36.5628H41.1164V15.3867Z" fill="#15C5A8"/>
<path d="M24.7719 39.6128C26.4557 39.6128 27.8207 38.2478 27.8207 36.564C27.8207 34.8802 26.4557 33.5151 24.7719 33.5151C23.088 33.5151 21.723 34.8802 21.723 36.564C21.723 38.2478 23.088 39.6128 24.7719 39.6128Z" fill="#F2F2F2"/>
<path d="M47.3832 39.6128C49.067 39.6128 50.4321 38.2478 50.4321 36.564C50.4321 34.8802 49.067 33.5151 47.3832 33.5151C45.6994 33.5151 44.3344 34.8802 44.3344 36.564C44.3344 38.2478 45.6994 39.6128 47.3832 39.6128Z" fill="#F2F2F2"/>
<path d="M43.387 37.6593C43.8688 39.4145 45.4773 40.7082 47.3834 40.7082C49.2895 40.7082 50.898 39.4145 51.3799 37.6593H53.9045C54.5095 37.6593 55.0001 37.1688 55.0001 36.5637V28.2642C55.0001 27.9987 54.9036 27.742 54.7287 27.5423L48.3488 20.259C48.1407 20.0216 47.8404 19.8853 47.5247 19.8853H42.2121V15.3873C42.2121 14.7822 41.7215 14.2917 41.1165 14.2917H18.4884C17.8834 14.2917 17.3928 14.7822 17.3928 15.3873V16.8657H6.85548C6.25048 16.8657 5.75989 17.3562 5.75989 17.9613C5.75989 18.5664 6.25048 19.0569 6.85548 19.0569H17.3927V33.2591H11.0499C10.4449 33.2591 9.95428 33.7496 9.95428 34.3547C9.95428 34.9598 10.4449 35.4503 11.0499 35.4503H17.3927V36.5637C17.3927 37.1688 17.8833 37.6593 18.4883 37.6593H20.7751C21.2569 39.4145 22.8654 40.7082 24.7715 40.7082C26.6776 40.7082 28.2861 39.4145 28.768 37.6593H43.387ZM40.0206 35.4681H28.7679C28.2861 33.713 26.6775 32.4193 24.7714 32.4193C22.8653 32.4193 21.2569 33.713 20.775 35.4681H19.5838V16.4828H40.0205V35.4681H40.0206ZM24.7715 38.517C23.6945 38.517 22.8184 37.6408 22.8184 36.5637C22.8184 35.4867 23.6945 34.6105 24.7715 34.6105C25.8485 34.6105 26.7248 35.4867 26.7248 36.5637C26.7248 37.6408 25.8485 38.517 24.7715 38.517ZM47.3832 38.517C46.3062 38.517 45.43 37.6408 45.43 36.5637C45.43 35.4867 46.3062 34.6105 47.3832 34.6105C48.4602 34.6105 49.3364 35.4867 49.3364 36.5637C49.3364 37.6408 48.4603 38.517 47.3832 38.517ZM52.8088 35.4681H51.3797C50.8979 33.713 49.2893 32.4193 47.3832 32.4193C45.4771 32.4193 43.8687 33.713 43.3868 35.4681H42.2117V22.0765H47.0275L52.8087 28.6762V35.4681H52.8088Z" fill="#15C5A8"/>
<path d="M7.4402 33.259H6.85561C6.25061 33.259 5.76001 33.7495 5.76001 34.3546C5.76001 34.9597 6.25061 35.4502 6.85561 35.4502H7.4402C8.0452 35.4502 8.53579 34.9597 8.53579 34.3546C8.53579 33.7495 8.04531 33.259 7.4402 33.259Z" fill="#15C5A8"/>
<path d="M13.9325 26.0471C13.9325 25.442 13.4419 24.9515 12.8369 24.9515H1.0956C0.490596 24.9515 0 25.442 0 26.0471C0 26.6522 0.490596 27.1427 1.0956 27.1427H12.8369C13.4419 27.1427 13.9325 26.6522 13.9325 26.0471Z" fill="#15C5A8"/>
</g>
<defs>
<clipPath id="clip0">
<rect width="55" height="55" fill="white"/>
</clipPath>
</defs>
</svg>
