<svg width="31" height="31" viewBox="0 0 31 31" fill="none" xmlns="http://www.w3.org/2000/svg">
<path fill-rule="evenodd" clip-rule="evenodd" d="M16.3126 29.9437H14.6874C13.3004 29.9437 12.1103 28.9622 11.8157 27.6441C11.007 27.4007 10.2246 27.0772 9.48142 26.679C8.33921 27.4034 6.80238 27.2574 5.82153 26.2785L4.67241 25.1315C3.69156 24.1526 3.54554 22.6187 4.27105 21.4787C3.87208 20.7369 3.54798 19.9561 3.30408 19.149C1.98339 18.855 1 17.6673 1 16.2829V14.6609C1 13.2765 1.98339 12.0887 3.30397 11.7947C3.54787 10.9876 3.87202 10.2067 4.27094 9.46495C3.54543 8.32507 3.69151 6.79117 4.67224 5.81217L5.82148 4.66522C6.80221 3.68628 8.33915 3.54049 9.48137 4.2647C10.2246 3.86644 11.0071 3.54297 11.8156 3.29961C12.1103 1.98149 13.3004 1 14.6875 1H16.3127C17.6997 1 18.8898 1.98143 19.1844 3.2995C19.9929 3.54292 20.7754 3.86644 21.5186 4.26459C22.6608 3.54032 24.1977 3.68622 25.1785 4.66511L26.3277 5.81206C27.3085 6.791 27.4546 8.32496 26.7291 9.46484C27.1281 10.2067 27.4521 10.9875 27.696 11.7946C29.0166 12.0887 30 13.2764 30 14.6607V16.2828C30 17.6672 29.0166 18.8548 27.696 19.1488C27.4522 19.9558 27.128 20.7368 26.7291 21.4786C27.4546 22.6185 27.3085 24.1525 26.3277 25.1313L25.1785 26.2783C24.1977 27.2572 22.6608 27.403 21.5187 26.6789C20.7754 27.0771 19.9931 27.4005 19.1844 27.6439C18.8898 28.9622 17.6998 29.9437 16.3126 29.9437ZM9.43838 25.4189C9.53738 25.4189 9.63685 25.4442 9.72662 25.4959C10.5901 25.9924 11.5167 26.3755 12.4808 26.6346C12.7171 26.6981 12.8876 26.9033 12.9065 27.1469C12.978 28.0686 13.7602 28.7906 14.6875 28.7906H16.3127C17.2399 28.7906 18.0221 28.0686 18.0936 27.1468C18.1125 26.9032 18.283 26.698 18.5193 26.6345C19.4834 26.3754 20.41 25.9923 21.2735 25.4958C21.4856 25.3739 21.7518 25.3985 21.9377 25.5575C22.6413 26.159 23.7059 26.1175 24.3616 25.463L25.5108 24.316C26.1665 23.6616 26.208 22.599 25.6054 21.8968C25.4462 21.7112 25.4214 21.4456 25.5436 21.2339C26.0412 20.372 26.425 19.4472 26.6845 18.4852C26.7482 18.2493 26.9539 18.079 27.1979 18.0602C28.1213 17.989 28.8447 17.2084 28.8447 16.2829V14.6609C28.8447 13.7354 28.1213 12.9547 27.1978 12.8835C26.9538 12.8646 26.7481 12.6944 26.6845 12.4585C26.4249 11.4964 26.041 10.5715 25.5436 9.70968C25.4213 9.49797 25.4461 9.23233 25.6054 9.04674C26.208 8.34457 26.1664 7.28202 25.5107 6.62757L24.3615 5.48062C23.7058 4.82611 22.6411 4.78473 21.9377 5.38616C21.7517 5.54523 21.4856 5.56982 21.2734 5.44783C20.4098 4.95121 19.4832 4.56804 18.5193 4.30908C18.2829 4.24554 18.1124 4.04033 18.0935 3.79674C18.0221 2.87518 17.2399 2.15317 16.3126 2.15317H14.6874C13.7602 2.15317 12.978 2.87512 12.9065 3.79685C12.8877 4.04044 12.7171 4.24565 12.4808 4.30919C11.5169 4.56816 10.5902 4.95138 9.72662 5.44794C9.5145 5.56999 9.24835 5.54529 9.0624 5.38627C8.35881 4.78467 7.29413 4.82628 6.63846 5.48073L5.48928 6.62757C4.83361 7.28202 4.79209 8.34457 5.39469 9.04674C5.55396 9.23233 5.57871 9.49797 5.45648 9.70968C4.95901 10.5715 4.57516 11.4963 4.31557 12.4585C4.25191 12.6944 4.04625 12.8646 3.80224 12.8835C2.87877 12.9548 2.15536 13.7354 2.15536 14.6609V16.2829C2.15536 17.2084 2.87871 17.989 3.80224 18.0603C4.04625 18.0791 4.25191 18.2493 4.31557 18.4852C4.57516 19.4473 4.95901 20.3722 5.45648 21.234C5.57871 21.4457 5.55396 21.7114 5.39469 21.8969C4.79203 22.5991 4.83361 23.6617 5.48928 24.3161L6.63846 25.4631C7.29419 26.1175 8.35886 26.159 9.0624 25.5576C9.16962 25.4658 9.30357 25.4189 9.43838 25.4189Z" fill="#404040" stroke="#404040" stroke-miterlimit="8"/>
<path fill-rule="evenodd" clip-rule="evenodd" d="M27.2234 12.3124C26.9475 11.2919 26.542 10.3244 26.0242 9.42928C26.8207 8.5032 26.7795 7.10797 25.8993 6.23123L24.7491 5.08564C23.8689 4.20885 22.4681 4.16781 21.5383 4.96116C20.6396 4.44543 19.6682 4.04152 18.6437 3.76672C18.5493 2.55097 17.5298 1.59357 16.285 1.59357H14.6584C13.4137 1.59357 12.3941 2.55097 12.2997 3.76678C11.2752 4.04152 10.3038 4.44549 9.40507 4.96121C8.47532 4.16792 7.07448 4.20896 6.19428 5.0857L5.04408 6.23118C4.16389 7.10791 4.12265 8.50314 4.91919 9.42923C4.40138 10.3244 3.99584 11.2919 3.71994 12.3123C2.49933 12.4064 1.53809 13.4219 1.53809 14.6618V16.2819C1.53809 17.5217 2.49933 18.5372 3.71994 18.6312C3.99584 19.6517 4.40138 20.6192 4.91919 21.5143C4.12271 22.4404 4.16389 23.8357 5.04408 24.7124L6.19423 25.858C7.07448 26.7347 8.47526 26.7758 9.40502 25.9824C10.3038 26.4981 11.2751 26.9021 12.2997 27.1769C12.3941 28.3927 13.4136 29.3501 14.6584 29.3501H16.285C17.5298 29.3501 18.5493 28.3927 18.6437 27.1769C19.6682 26.9022 20.6396 26.4982 21.5383 25.9825C22.4681 26.7758 23.8689 26.7348 24.7491 25.858L25.8993 24.7125C26.7795 23.8357 26.8207 22.4405 26.0242 21.5144C26.542 20.6192 26.9475 19.6518 27.2234 18.6313C28.444 18.5373 29.4053 17.5217 29.4053 16.2819V14.6618C29.4053 13.4219 28.444 12.4064 27.2234 12.3124Z" fill="#404040"/>
<path fill-rule="evenodd" clip-rule="evenodd" d="M15.4434 25.7604C9.7904 25.7604 5.19141 21.1704 5.19141 15.5284C5.19141 9.88639 9.7904 5.29633 15.4434 5.29633C21.0963 5.29633 25.6953 9.88639 25.6953 15.5284C25.6953 21.1704 21.0963 25.7604 15.4434 25.7604ZM15.4434 6.44927C10.4274 6.44927 6.34659 10.5221 6.34659 15.5284C6.34659 20.5346 10.4274 24.6075 15.4434 24.6075C20.4593 24.6075 24.5401 20.5346 24.5401 15.5284C24.5401 10.5221 20.4593 6.44927 15.4434 6.44927Z" fill="#404040" stroke="#404040" stroke-miterlimit="8"/>
<path fill-rule="evenodd" clip-rule="evenodd" d="M25.1572 15.4718C25.1572 20.8263 20.8209 25.1668 15.4717 25.1668C10.1225 25.1668 5.78613 20.8263 5.78613 15.4718C5.78613 10.1174 10.1225 5.77684 15.4717 5.77684C20.8209 5.77684 25.1572 10.1174 25.1572 15.4718Z" fill="white"/>
<path fill-rule="evenodd" clip-rule="evenodd" d="M13.1231 11.1506C13.5479 11.1285 13.9884 11.2151 14.4075 11.4328C15.0384 11.7604 15.7917 11.7604 16.4226 11.4328C18.0975 10.563 20.1162 11.7859 20.1162 13.6855C20.1162 15.3826 18.7871 20.5879 17.5853 20.5879C17.1957 20.5879 16.7121 19.961 16.2587 18.868C15.9471 18.1171 14.8831 18.1167 14.5714 18.8681C14.118 19.961 13.6345 20.5879 13.2449 20.5879C12.0438 20.5879 10.7139 15.3899 10.7139 13.6855C10.7139 12.2621 11.8484 11.217 13.1231 11.1506Z" fill="#404040"/>
</svg>
