<?xml version="1.0" encoding="utf-8"?>
<!-- Generator: Adobe Illustrator 26.0.3, SVG Export Plug-In . SVG Version: 6.00 Build 0)  -->
<svg version="1.1" id="Layer_1" xmlns="http://www.w3.org/2000/svg" xmlns:xlink="http://www.w3.org/1999/xlink" x="0px" y="0px"
	 viewBox="0 0 400 500" style="enable-background:new 0 0 400 500;" xml:space="preserve">
<style type="text/css">
	.st0{fill:#37BCA4;}
</style>
<path class="st0" d="M128.21,291.61h21.86c1.16,0,2.28-0.83,3.1-2.29c0.82-1.47,1.29-3.46,1.29-5.54s-0.46-4.07-1.29-5.54
	c-0.82-1.47-1.94-2.29-3.1-2.29h-21.86c-1.16,0-2.28,0.83-3.1,2.29c-0.82,1.47-1.29,3.46-1.29,5.54s0.46,4.07,1.29,5.54
	C125.93,290.79,127.05,291.61,128.21,291.61z"/>
<path class="st0" d="M166.98,283.78c0,2.08,0.46,4.07,1.29,5.54c0.82,1.47,1.94,2.29,3.1,2.29h100.7c1.16,0,2.28-0.83,3.1-2.29
	c0.82-1.47,1.29-3.46,1.29-5.54s-0.46-4.07-1.29-5.54c-0.82-1.47-1.94-2.29-3.1-2.29h-100.7c-1.16,0-2.28,0.83-3.1,2.29
	C167.44,279.71,166.98,281.7,166.98,283.78z"/>
<path class="st0" d="M128.21,319.53h21.86c1.16,0,2.28-0.75,3.1-2.07c0.82-1.33,1.29-3.13,1.29-5s-0.46-3.68-1.29-5
	c-0.82-1.33-1.94-2.07-3.1-2.07h-21.86c-1.16,0-2.28,0.75-3.1,2.07c-0.82,1.33-1.29,3.13-1.29,5s0.46,3.68,1.29,5
	S127.05,319.53,128.21,319.53z"/>
<path class="st0" d="M272.07,305.38h-100.7c-1.16,0-2.28,0.75-3.1,2.07c-0.82,1.33-1.29,3.13-1.29,5s0.46,3.68,1.29,5
	c0.82,1.33,1.94,2.07,3.1,2.07h100.7c1.16,0,2.28-0.75,3.1-2.07c0.82-1.33,1.29-3.13,1.29-5s-0.46-3.68-1.29-5
	C274.35,306.13,273.24,305.38,272.07,305.38z"/>
<path class="st0" d="M184.23,211.2l-5.5,6.35c4.9,4.26,11.14,6.93,17.79,7.63v4.78h6.95v-4.57c11.07-0.7,17.4-6.71,17.4-14.91
	c0-8.7-6.95-12.06-17.4-14.27v-13.42c4.03,0.91,7.76,2.75,10.84,5.35l5.19-6.57c-4.46-3.74-10.07-6.06-16.03-6.64v-4.41h-6.94v4.35
	c-9.39,1.07-15.73,6.99-15.73,14.69c0,8.42,6.33,11.56,15.73,13.83v13.91C191.9,216.36,187.66,214.24,184.23,211.2z M203.46,205.07
	c5.42,1.5,7.86,3,7.86,6.28c0,3.14-2.67,5.86-7.86,6.42V205.07z M190.42,188.8c0.13-1.52,0.8-2.95,1.91-4.06
	c1.11-1.11,2.59-1.84,4.2-2.07v11.85C192.4,193.15,190.41,191.65,190.42,188.8L190.42,188.8z"/>
<path class="st0" d="M200.88,249.96c10.29,0,20.34-2.92,28.89-8.38c8.55-5.46,15.22-13.23,19.16-22.31
	c3.94-9.08,4.97-19.08,2.96-28.72c-2.01-9.64-6.96-18.5-14.23-25.45c-7.27-6.95-16.54-11.69-26.63-13.61
	c-10.09-1.92-20.55-0.93-30.05,2.83c-9.5,3.76-17.63,10.13-23.34,18.31c-5.71,8.18-8.77,17.79-8.77,27.62
	c0.01,13.18,5.5,25.82,15.25,35.14S187.09,249.95,200.88,249.96z M199.8,162.77c7.47,0,14.78,2.13,20.99,6.13
	c6.21,4,11.06,9.68,13.92,16.33c2.86,6.65,3.61,13.96,2.15,21.02c-1.46,7.06-5.06,13.54-10.34,18.63
	c-5.29,5.09-12.02,8.55-19.35,9.96c-7.33,1.4-14.93,0.68-21.83-2.07c-6.91-2.75-12.81-7.42-16.96-13.4
	c-4.15-5.98-6.37-13.02-6.37-20.21c0.01-9.65,3.99-18.89,11.08-25.71C180.17,166.61,189.78,162.78,199.8,162.77z"/>
<path class="st0" d="M306.64,110.58h-213c-1.16,0-2.28,0.43-3.1,1.2c-0.82,0.77-1.29,1.81-1.29,2.9v270.56
	c0,0.81,0.26,1.61,0.74,2.28c0.48,0.68,1.17,1.2,1.97,1.51c0.8,0.31,1.69,0.39,2.54,0.23c0.85-0.16,1.63-0.55,2.25-1.12l18.19-17.01
	l18.2,17.01c0.82,0.77,1.94,1.2,3.1,1.2c1.16,0,2.28-0.43,3.1-1.2l18.19-17.01l18.2,17.01c0.82,0.77,1.94,1.2,3.1,1.2
	c1.16,0,2.28-0.43,3.1-1.2l18.19-17.01l18.2,17.01c0.82,0.77,1.94,1.2,3.1,1.2c1.16,0,2.28-0.43,3.1-1.2l18.19-17.01l18.19,17.01
	c0.82,0.77,1.94,1.2,3.1,1.2c1.16,0,2.28-0.43,3.1-1.2l18.2-17.01l18.19,17.01c0.61,0.57,1.4,0.96,2.25,1.12
	c0.85,0.16,1.74,0.08,2.54-0.23c0.8-0.31,1.49-0.84,1.97-1.51c0.48-0.68,0.74-1.47,0.74-2.28V114.68c0-1.09-0.46-2.13-1.29-2.9
	C308.92,111.01,307.81,110.58,306.64,110.58z M289.22,352.44l-11.93-10.94c-0.71-0.65-1.68-1.02-2.68-1.02
	c-1.01,0-1.97,0.37-2.68,1.02l-15.74,14.42l-15.74-14.42c-0.71-0.65-1.68-1.02-2.68-1.02c-1.01,0-1.97,0.37-2.68,1.02l-15.74,14.42
	L203.6,341.5c-0.71-0.65-1.68-1.02-2.68-1.02c-1.01,0-1.97,0.37-2.68,1.02l-15.74,14.42l-15.74-14.42
	c-0.71-0.65-1.68-1.02-2.68-1.02s-1.97,0.37-2.68,1.02l-15.74,14.42l-15.74-14.42c-0.71-0.65-1.68-1.02-2.68-1.02
	c-1.01,0-1.97,0.37-2.68,1.02l-11.93,10.94V134.88h176.63L289.22,352.44z"/>
</svg>
