<svg width="23" height="29" viewBox="0 0 23 29" fill="none" xmlns="http://www.w3.org/2000/svg">
<path fill-rule="evenodd" clip-rule="evenodd" d="M5.8527 28.364L7.21904 26.9271C7.49231 26.6538 7.94775 26.6538 8.19825 26.9271L9.56459 28.364C9.99726 28.82 10.7487 28.5006 10.7487 27.8847V25.2858H21.8158C22.1347 25.2858 22.4762 25.1719 22.704 24.9208C23.0683 24.5104 23.0911 23.9177 22.7951 23.4845C22.5218 23.0968 22.3396 22.5724 22.2713 22.1164C22.203 21.6604 22.2257 21.2044 22.3624 20.7484C22.5218 20.2468 23 19.7675 23 19.2431V1.36805C23 0.615593 22.3851 0 21.6337 0H1.36634C0.614852 0 0 0.615593 0 1.36805V19.2209V23.9177C0 24.6698 0.614852 25.2858 1.36634 25.2858H4.66832V27.8852C4.66832 28.5006 5.4198 28.7972 5.8527 28.364ZM4.53168 2.98687C4.53168 2.59923 4.82772 2.30285 5.21485 2.30285H20.0168C20.404 2.30285 20.7 2.59923 20.7 2.98687V17.3969C20.7 17.7846 20.404 18.0806 20.0168 18.0806H5.21485C4.82772 18.0806 4.53168 17.7846 4.53168 17.3969V2.98687ZM2.9604 23.0057C2.57327 23.0057 2.27723 22.7091 2.27723 22.322V21.045C2.27723 20.6573 2.57327 20.3607 2.9604 20.3607H20.0852C19.8347 21.341 19.9257 22.2758 20.1307 23.0057H10.7485V21.5693H4.66832V23.0057H2.9604Z" fill="#404040"/>
<path fill-rule="evenodd" clip-rule="evenodd" d="M10.2779 5.8103C10.7049 5.78815 11.1476 5.87492 11.5689 6.09279C12.203 6.42082 12.9602 6.42082 13.5944 6.09279C15.2778 5.22209 17.3068 6.44621 17.3068 8.34781C17.3068 10.0467 15.9712 15.2574 14.7632 15.2574C14.3715 15.2574 13.8853 14.6299 13.4293 13.5358C13.1164 12.7841 12.0469 12.7837 11.7336 13.5359C11.2779 14.6299 10.7919 15.2574 10.4003 15.2574C9.19306 15.2574 7.85632 10.054 7.85632 8.34781C7.85632 6.92295 8.9967 5.87668 10.2779 5.8103Z" fill="#404040"/>
</svg>
