<?xml version="1.0" encoding="utf-8"?>
<!-- Generator: Adobe Illustrator 26.0.3, SVG Export Plug-In . SVG Version: 6.00 Build 0)  -->
<svg version="1.1" id="Layer_1" xmlns="http://www.w3.org/2000/svg" xmlns:xlink="http://www.w3.org/1999/xlink" x="0px" y="0px"
	 viewBox="0 0 400 500" style="enable-background:new 0 0 400 500;" xml:space="preserve">
<style type="text/css">
	.st0{fill:#848181;}
</style>
<path class="st0" d="M87.82,153.73h224.65c8.83,0,16.05-7.22,16.05-16.05s-7.22-16.05-16.05-16.05H87.82
	c-8.83,0-16.05,7.22-16.05,16.05S79,153.73,87.82,153.73z M331.08,182.6c-1.44-7.38-8.02-12.84-15.73-12.84H84.93
	c-7.7,0-14.28,5.46-15.73,12.84l-16.05,80.23c-1.93,9.95,5.62,19.26,15.73,19.26h2.89v80.23c0,8.83,7.22,16.05,16.05,16.05h128.37
	c8.83,0,16.05-7.22,16.05-16.05V282.1h64.19v80.23c0,8.83,7.22,16.05,16.05,16.05s16.05-7.22,16.05-16.05V282.1h2.89
	c10.11,0,17.65-9.31,15.73-19.26L331.08,182.6z M200.15,346.29h-96.28V282.1h96.28V346.29z"/>
</svg>
